{
	"info": {
		"name": "TrueSizer",
		"_postman_id": "27443e6f-d6ab-3dc3-2eb0-e3ab28a8afa9",
		"description": "",
		"schema": "https://schema.getpostman.com/json/collection/v2.1.0/collection.json"
	},
	"item": [
		{
			"name": "GET Shoes",
			"request": {
				"method": "GET",
				"header": [],
				"body": {},
				"url": {
					"raw": "localhost/shoes",
					"host": [
						"localhost"
					],
					"path": [
						"shoes"
					]
				},
				"description": ""
			},
			"response": []
		},
		{
			"name": "GET Shoe",
			"request": {
				"method": "GET",
				"header": [],
				"body": {},
				"url": {
					"raw": "localhost/shoes/1",
					"host": [
						"localhost"
					],
					"path": [
						"shoes",
						"1"
					]
				},
				"description": ""
			},
			"response": []
		},
		{
			"name": "POST Size Rating",
			"request": {
				"method": "POST",
				"header": [
					{
						"key": "Content-Type",
						"value": "application/x-www-form-urlencoded"
					}
				],
				"body": {
					"mode": "urlencoded",
					"urlencoded": [
						{
							"key": "rating",
							"value": "5",
							"description": "",
							"type": "text"
						}
					]
				},
				"url": {
					"raw": "localhost/shoes/2/rate",
					"host": [
						"localhost"
					],
					"path": [
						"shoes",
						"2",
						"rate"
					]
				},
				"description": ""
			},
			"response": []
		}
	]
}